{
  "name": "App",
  "app_id": "bd7c5b14",
  "type": "ionic1",
  "watchPatterns": [
    "scss/**/*",
    "www/**/*",
    "!www/lib/**/*",
    "!www/**/*.map"
  ],
  "integrations": {
    "gulp": {},
    "cordova": {}
  }
}
